<svg xmlns="http://www.w3.org/2000/svg" width="29.8" height="32" viewBox="0 0 29.8 32">
  <g id="Layer_2" data-name="Layer 2" transform="translate(-11.88 -13.76)">
    <g id="Layer_1-2" data-name="Layer 1-2">
      <path id="Path_30" data-name="Path 30" d="M31.76,45.76l9.92-32L27.36,25.05,11.88,13.76l6.74,29.19,5.51-6ZM18.94,41.57l1-9.86,3.82,4.66Zm12.53,2.67L12.84,15.08l18.22,14,9.38-13.14Z" fill="#1e1e1e"/>
    </g>
  </g>
</svg>
